%YAML 1.1
%TAG !u! tag:unity3d.com,2011:
--- !u!74 &7400000
AnimationClip:
  m_ObjectHideFlags: 0
  m_CorrespondingSourceObject: {fileID: 0}
  m_PrefabInstance: {fileID: 0}
  m_PrefabAsset: {fileID: 0}
  m_Name: LeftCrouch_Idle
  serializedVersion: 6
  m_Legacy: 0
  m_Compressed: 0
  m_UseHighQualityCurve: 1
  m_RotationCurves: []
  m_CompressedRotationCurves: []
  m_EulerCurves: []
  m_PositionCurves: []
  m_ScaleCurves: []
  m_FloatCurves: []
  m_PPtrCurves:
  - curve:
    - time: 0
      value: {fileID: 21300000, guid: 88e78988aa5f49e449dd244b3f6a6357, type: 3}
    - time: 0.29166666
      value: {fileID: 21300000, guid: 39732606f0b6c23479e0db89b080509e, type: 3}
    - time: 0.41666666
      value: {fileID: 21300000, guid: ddca04f259a90fd458ad53f7d40cd31c, type: 3}
    - time: 0.625
      value: {fileID: 21300000, guid: 762ee6b44aa45ea41bc43d517db6a90c, type: 3}
    - time: 0.7916667
      value: {fileID: 21300000, guid: 812ecb021a2dcbc4282c5ea5ddc4025c, type: 3}
    - time: 1.0416666
      value: {fileID: 21300000, guid: 25a952356e2b248428b9dddcfb118359, type: 3}
    - time: 1.1666666
      value: {fileID: 21300000, guid: 82c466206c57a024289101dd112f0546, type: 3}
    - time: 1.3333334
      value: {fileID: 21300000, guid: 88e78988aa5f49e449dd244b3f6a6357, type: 3}
    - time: 1.5
      value: {fileID: 21300000, guid: 88e78988aa5f49e449dd244b3f6a6357, type: 3}
    attribute: m_Sprite
    path: 
    classID: 212
    script: {fileID: 0}
  m_SampleRate: 24
  m_WrapMode: 0
  m_Bounds:
    m_Center: {x: 0, y: 0, z: 0}
    m_Extent: {x: 0, y: 0, z: 0}
  m_ClipBindingConstant:
    genericBindings:
    - serializedVersion: 2
      path: 0
      attribute: 0
      script: {fileID: 0}
      typeID: 212
      customType: 23
      isPPtrCurve: 1
    pptrCurveMapping:
    - {fileID: 21300000, guid: 88e78988aa5f49e449dd244b3f6a6357, type: 3}
    - {fileID: 21300000, guid: 39732606f0b6c23479e0db89b080509e, type: 3}
    - {fileID: 21300000, guid: ddca04f259a90fd458ad53f7d40cd31c, type: 3}
    - {fileID: 21300000, guid: 762ee6b44aa45ea41bc43d517db6a90c, type: 3}
    - {fileID: 21300000, guid: 812ecb021a2dcbc4282c5ea5ddc4025c, type: 3}
    - {fileID: 21300000, guid: 25a952356e2b248428b9dddcfb118359, type: 3}
    - {fileID: 21300000, guid: 82c466206c57a024289101dd112f0546, type: 3}
    - {fileID: 21300000, guid: 88e78988aa5f49e449dd244b3f6a6357, type: 3}
    - {fileID: 21300000, guid: 88e78988aa5f49e449dd244b3f6a6357, type: 3}
  m_AnimationClipSettings:
    serializedVersion: 2
    m_AdditiveReferencePoseClip: {fileID: 0}
    m_AdditiveReferencePoseTime: 0
    m_StartTime: 0
    m_StopTime: 1.5416666
    m_OrientationOffsetY: 0
    m_Level: 0
    m_CycleOffset: 0
    m_HasAdditiveReferencePose: 0
    m_LoopTime: 1
    m_LoopBlend: 0
    m_LoopBlendOrientation: 0
    m_LoopBlendPositionY: 0
    m_LoopBlendPositionXZ: 0
    m_KeepOriginalOrientation: 0
    m_KeepOriginalPositionY: 1
    m_KeepOriginalPositionXZ: 0
    m_HeightFromFeet: 0
    m_Mirror: 0
  m_EditorCurves: []
  m_EulerEditorCurves: []
  m_HasGenericRootTransform: 0
  m_HasMotionFloatCurves: 0
  m_Events: []
