%YAML 1.1
%TAG !u! tag:unity3d.com,2011:
--- !u!74 &7400000
AnimationClip:
  m_ObjectHideFlags: 0
  m_CorrespondingSourceObject: {fileID: 0}
  m_PrefabInstance: {fileID: 0}
  m_PrefabAsset: {fileID: 0}
  m_Name: ForwardAttack
  serializedVersion: 6
  m_Legacy: 0
  m_Compressed: 0
  m_UseHighQualityCurve: 1
  m_RotationCurves: []
  m_CompressedRotationCurves: []
  m_EulerCurves: []
  m_PositionCurves: []
  m_ScaleCurves: []
  m_FloatCurves: []
  m_PPtrCurves:
  - curve:
    - time: 0
      value: {fileID: 21300000, guid: 6bb3cf4657d742f468dada359591c710, type: 3}
    - time: 0.083333336
      value: {fileID: 21300000, guid: 450ce7316108bd2488f7d57f2fab12a6, type: 3}
    - time: 0.16666667
      value: {fileID: 21300000, guid: fcf4b90e886c53d4c833f1e130c90f81, type: 3}
    - time: 0.25
      value: {fileID: 21300000, guid: 497b287073521a14f85eecfb1e3443a2, type: 3}
    - time: 0.33333334
      value: {fileID: 21300000, guid: 2c3bee0395c255541a0305adb24ae1dc, type: 3}
    - time: 0.41666666
      value: {fileID: 21300000, guid: b55a8df5d0e52d14e885313f39d69d30, type: 3}
    - time: 0.5
      value: {fileID: 21300000, guid: ceec006d9b9887743a19415c1a333c6b, type: 3}
    - time: 0.5833333
      value: {fileID: 21300000, guid: 497b287073521a14f85eecfb1e3443a2, type: 3}
    attribute: m_Sprite
    path: 
    classID: 212
    script: {fileID: 0}
  m_SampleRate: 24
  m_WrapMode: 0
  m_Bounds:
    m_Center: {x: 0, y: 0, z: 0}
    m_Extent: {x: 0, y: 0, z: 0}
  m_ClipBindingConstant:
    genericBindings:
    - serializedVersion: 2
      path: 0
      attribute: 0
      script: {fileID: 0}
      typeID: 212
      customType: 23
      isPPtrCurve: 1
    pptrCurveMapping:
    - {fileID: 21300000, guid: 6bb3cf4657d742f468dada359591c710, type: 3}
    - {fileID: 21300000, guid: 450ce7316108bd2488f7d57f2fab12a6, type: 3}
    - {fileID: 21300000, guid: fcf4b90e886c53d4c833f1e130c90f81, type: 3}
    - {fileID: 21300000, guid: 497b287073521a14f85eecfb1e3443a2, type: 3}
    - {fileID: 21300000, guid: 2c3bee0395c255541a0305adb24ae1dc, type: 3}
    - {fileID: 21300000, guid: b55a8df5d0e52d14e885313f39d69d30, type: 3}
    - {fileID: 21300000, guid: ceec006d9b9887743a19415c1a333c6b, type: 3}
    - {fileID: 21300000, guid: 497b287073521a14f85eecfb1e3443a2, type: 3}
  m_AnimationClipSettings:
    serializedVersion: 2
    m_AdditiveReferencePoseClip: {fileID: 0}
    m_AdditiveReferencePoseTime: 0
    m_StartTime: 0
    m_StopTime: 0.625
    m_OrientationOffsetY: 0
    m_Level: 0
    m_CycleOffset: 0
    m_HasAdditiveReferencePose: 0
    m_LoopTime: 0
    m_LoopBlend: 0
    m_LoopBlendOrientation: 0
    m_LoopBlendPositionY: 0
    m_LoopBlendPositionXZ: 0
    m_KeepOriginalOrientation: 0
    m_KeepOriginalPositionY: 1
    m_KeepOriginalPositionXZ: 0
    m_HeightFromFeet: 0
    m_Mirror: 0
  m_EditorCurves: []
  m_EulerEditorCurves: []
  m_HasGenericRootTransform: 0
  m_HasMotionFloatCurves: 0
  m_Events:
  - time: 0.5833333
    functionName: AttackEvent
    data: 
    objectReferenceParameter: {fileID: 0}
    floatParameter: 0
    intParameter: 0
    messageOptions: 0
