%YAML 1.1
%TAG !u! tag:unity3d.com,2011:
--- !u!114 &11400000
MonoBehaviour:
  m_ObjectHideFlags: 0
  m_CorrespondingSourceObject: {fileID: 0}
  m_PrefabInstance: {fileID: 0}
  m_PrefabAsset: {fileID: 0}
  m_GameObject: {fileID: 0}
  m_Enabled: 1
  m_EditorHideFlags: 0
  m_Script: {fileID: 11500000, guid: 1f592adfcf0ca39429989d29d00c497e, type: 3}
  m_Name: Pipe
  m_EditorClassIdentifier: 
  ObjectName: Pipe
  ID: 2
  lifeTime: 10
  basePrefab: {fileID: 0}
  LimitPerGrid: 1
  sprite: {fileID: 21300000, guid: c1975c8b989004c4ca3babb46ea5a094, type: 3}
  HandheldObjPrefab: {fileID: 0}
