%YAML 1.1
%TAG !u! tag:unity3d.com,2011:
--- !u!74 &7400000
AnimationClip:
  m_ObjectHideFlags: 0
  m_CorrespondingSourceObject: {fileID: 0}
  m_PrefabInstance: {fileID: 0}
  m_PrefabAsset: {fileID: 0}
  m_Name: Run_R
  serializedVersion: 6
  m_Legacy: 0
  m_Compressed: 0
  m_UseHighQualityCurve: 1
  m_RotationCurves: []
  m_CompressedRotationCurves: []
  m_EulerCurves: []
  m_PositionCurves: []
  m_ScaleCurves: []
  m_FloatCurves: []
  m_PPtrCurves:
  - curve:
    - time: 0
      value: {fileID: 21300000, guid: d0c636f5c53334c16af5aca9d6d543f5, type: 3}
    - time: 0.041666668
      value: {fileID: 21300000, guid: 37c89979cfc3644488e6ab4c038f5898, type: 3}
    - time: 0.083333336
      value: {fileID: 21300000, guid: 4a63d3f64a97840d698d499474bd12f1, type: 3}
    - time: 0.125
      value: {fileID: 21300000, guid: 00cd227a3a70d4858b47d9fa9803ce28, type: 3}
    - time: 0.16666667
      value: {fileID: 21300000, guid: 82a5773cedc7049ffb72d094e2ccf57b, type: 3}
    - time: 0.20833333
      value: {fileID: 21300000, guid: d86502a77204649138d540f67e1177a7, type: 3}
    - time: 0.25
      value: {fileID: 21300000, guid: a3d5688d0b7054487aa8c33ce00e4128, type: 3}
    - time: 0.29166666
      value: {fileID: 21300000, guid: 66289cab1341446da83a144647446c03, type: 3}
    - time: 0.33333334
      value: {fileID: 21300000, guid: 0b2f5e63c9d3043489c5dd3a2e409fbd, type: 3}
    - time: 0.375
      value: {fileID: 21300000, guid: e49aed0b2e7944107a79aa40f5303ffc, type: 3}
    - time: 0.41666666
      value: {fileID: 21300000, guid: 33a06c58d053c40b3a097ece9d46be9e, type: 3}
    - time: 0.45833334
      value: {fileID: 21300000, guid: 9ae3e6487e9b4400b897e5b716d84314, type: 3}
    - time: 0.5
      value: {fileID: 21300000, guid: 166c00c70737d484387b1b109396a8d3, type: 3}
    - time: 0.5416667
      value: {fileID: 21300000, guid: 769059ffeac394e00858a41f6a80934b, type: 3}
    - time: 0.5833333
      value: {fileID: 21300000, guid: 4a5030860a1cb442ba64337e22a5fb3e, type: 3}
    - time: 0.625
      value: {fileID: 21300000, guid: 718ce7123562948cda4fa5ed7b61a9e2, type: 3}
    attribute: m_Sprite
    path: 
    classID: 212
    script: {fileID: 0}
  m_SampleRate: 24
  m_WrapMode: 0
  m_Bounds:
    m_Center: {x: 0, y: 0, z: 0}
    m_Extent: {x: 0, y: 0, z: 0}
  m_ClipBindingConstant:
    genericBindings:
    - serializedVersion: 2
      path: 0
      attribute: 0
      script: {fileID: 0}
      typeID: 212
      customType: 23
      isPPtrCurve: 1
    pptrCurveMapping:
    - {fileID: 21300000, guid: d0c636f5c53334c16af5aca9d6d543f5, type: 3}
    - {fileID: 21300000, guid: 37c89979cfc3644488e6ab4c038f5898, type: 3}
    - {fileID: 21300000, guid: 4a63d3f64a97840d698d499474bd12f1, type: 3}
    - {fileID: 21300000, guid: 00cd227a3a70d4858b47d9fa9803ce28, type: 3}
    - {fileID: 21300000, guid: 82a5773cedc7049ffb72d094e2ccf57b, type: 3}
    - {fileID: 21300000, guid: d86502a77204649138d540f67e1177a7, type: 3}
    - {fileID: 21300000, guid: a3d5688d0b7054487aa8c33ce00e4128, type: 3}
    - {fileID: 21300000, guid: 66289cab1341446da83a144647446c03, type: 3}
    - {fileID: 21300000, guid: 0b2f5e63c9d3043489c5dd3a2e409fbd, type: 3}
    - {fileID: 21300000, guid: e49aed0b2e7944107a79aa40f5303ffc, type: 3}
    - {fileID: 21300000, guid: 33a06c58d053c40b3a097ece9d46be9e, type: 3}
    - {fileID: 21300000, guid: 9ae3e6487e9b4400b897e5b716d84314, type: 3}
    - {fileID: 21300000, guid: 166c00c70737d484387b1b109396a8d3, type: 3}
    - {fileID: 21300000, guid: 769059ffeac394e00858a41f6a80934b, type: 3}
    - {fileID: 21300000, guid: 4a5030860a1cb442ba64337e22a5fb3e, type: 3}
    - {fileID: 21300000, guid: 718ce7123562948cda4fa5ed7b61a9e2, type: 3}
  m_AnimationClipSettings:
    serializedVersion: 2
    m_AdditiveReferencePoseClip: {fileID: 0}
    m_AdditiveReferencePoseTime: 0
    m_StartTime: 0
    m_StopTime: 0.6666667
    m_OrientationOffsetY: 0
    m_Level: 0
    m_CycleOffset: 0
    m_HasAdditiveReferencePose: 0
    m_LoopTime: 1
    m_LoopBlend: 0
    m_LoopBlendOrientation: 0
    m_LoopBlendPositionY: 0
    m_LoopBlendPositionXZ: 0
    m_KeepOriginalOrientation: 0
    m_KeepOriginalPositionY: 1
    m_KeepOriginalPositionXZ: 0
    m_HeightFromFeet: 0
    m_Mirror: 0
  m_EditorCurves: []
  m_EulerEditorCurves: []
  m_HasGenericRootTransform: 0
  m_HasMotionFloatCurves: 0
  m_Events: []
